module gitlab.com/tomiwatech/ehcc-report

go 1.17

require (
	github.com/go-playground/validator/v10 v10.11.1
	github.com/google/uuid v1.3.0
	github.com/gorilla/mux v1.8.0
	github.com/lib/pq v1.10.7
	github.com/sirupsen/logrus v1.9.0
	github.com/spf13/viper v1.14.0
	go.mongodb.org/mongo-driver v1.11.1
	golang.org/x/crypto v0.5.0
)

require (
	github.com/davecgh/go-spew v1.1.1 // indirect
	github.com/dgrijalva/jwt-go v3.2.0+incompatible // indirect
	github.com/fsnotify/fsnotify v1.6.0 // indirect
	github.com/go-playground/locales v0.14.0 // indirect
	github.com/go-playground/universal-translator v0.18.0 // indirect
	github.com/go-resty/resty/v2 v2.7.0 // indirect
	github.com/golang-jwt/jwt v3.2.2+incompatible // indirect
	github.com/golang-jwt/jwt/v4 v4.4.3 // indirect
	github.com/golang/snappy v0.0.3 // indirect
	github.com/hashicorp/hcl v1.0.0 // indirect
	github.com/klauspost/compress v1.13.6 // indirect
	github.com/leodido/go-urn v1.2.1 // indirect
	github.com/magiconair/properties v1.8.6 // indirect
	github.com/mitchellh/mapstructure v1.5.0 // indirect
	github.com/montanaflynn/stats v0.0.0-20171201202039-1bf9dbcd8cbe // indirect
	github.com/pelletier/go-toml v1.9.5 // indirect
	github.com/pelletier/go-toml/v2 v2.0.5 // indirect
	github.com/pkg/errors v0.9.1 // indirect
	github.com/pmezard/go-difflib v1.0.0 // indirect
	github.com/spf13/afero v1.9.2 // indirect
	github.com/spf13/cast v1.5.0 // indirect
	github.com/spf13/jwalterweatherman v1.1.0 // indirect
	github.com/spf13/pflag v1.0.5 // indirect
	github.com/stretchr/testify v1.8.1 // indirect
	github.com/subosito/gotenv v1.4.1 // indirect
	github.com/xdg-go/pbkdf2 v1.0.0 // indirect
	github.com/xdg-go/scram v1.1.1 // indirect
	github.com/xdg-go/stringprep v1.0.3 // indirect
	github.com/youmark/pkcs8 v0.0.0-20181117223130-1be2e3e5546d // indirect
	golang.org/x/net v0.5.0 // indirect
	golang.org/x/sync v0.1.0 // indirect
	golang.org/x/sys v0.4.0 // indirect
	golang.org/x/text v0.6.0 // indirect
	gopkg.in/ini.v1 v1.67.0 // indirect
	gopkg.in/yaml.v2 v2.4.0 // indirect
	gopkg.in/yaml.v3 v3.0.1 // indirect
)
